%YAML 1.1
%TAG !u! tag:unity3d.com,2011:
--- !u!1045 &1
EditorBuildSettings:
  m_ObjectHideFlags: 0
  serializedVersion: 2
  m_Scenes: []
  m_configObjects:
    com.unity.adaptiveperformance.simulator.provider_settings: {fileID: 11400000,
      guid: a6f182c0fdf471745b16d32edfa23d3c, type: 2}
